<?xml version="1.0" encoding="utf-8"?>
<!-- Generator: Adobe Illustrator 22.0.1, SVG Export Plug-In . SVG Version: 6.00 Build 0)  -->
<svg version="1.1" id="Слой_1" xmlns:sketch="http://www.bohemiancoding.com/sketch/ns"
	 xmlns="http://www.w3.org/2000/svg" xmlns:xlink="http://www.w3.org/1999/xlink" x="0px" y="0px" viewBox="0 0 297 512"
	 style="enable-background:new 0 0 297 512;" xml:space="preserve">
<g id="Page-1">
	<path id="odnoklassniki" fill="#D0D0CF" d="M148.4,77.4c30.2,0,54.7,24.5,54.7,54.7c0,30.1-24.5,54.7-54.7,54.7c-30.1,0-54.7-24.5-54.7-54.7
		C93.7,102,118.3,77.4,148.4,77.4L148.4,77.4L148.4,77.4z M148.4,264.3c72.9,0,132.1-59.3,132.1-132.1C280.5,59.3,221.3,0,148.4,0
		C75.5,0,16.3,59.3,16.3,132.2C16.3,205,75.5,264.3,148.4,264.3L148.4,264.3z M201.9,372c26.9-6.1,52.8-16.8,76.7-31.8
		c18.1-11.4,23.5-35.3,12.1-53.4c-11.4-18.1-35.3-23.6-53.4-12.2c-54.1,34-123.8,34-177.9,0c-18.1-11.4-42-5.9-53.4,12.2
		c-11.4,18.1-6,42,12.1,53.4c23.9,15,49.8,25.7,76.7,31.8l-73.9,73.9c-15.1,15.1-15.1,39.6,0,54.7c7.6,7.6,17.5,11.3,27.4,11.3
		c9.9,0,19.8-3.8,27.4-11.3l72.6-72.6l72.6,72.6c15.1,15.1,39.6,15.1,54.7,0c15.1-15.1,15.1-39.6,0-54.7L201.9,372L201.9,372z"/>
</g>
</svg>
