<?xml version="1.0" encoding="utf-8"?>
<!-- Generator: Adobe Illustrator 22.0.1, SVG Export Plug-In . SVG Version: 6.00 Build 0)  -->
<svg version="1.1" id="Layer_1" xmlns="http://www.w3.org/2000/svg" xmlns:xlink="http://www.w3.org/1999/xlink" x="0px" y="0px"
	 viewBox="0 0 191 320.7" style="enable-background:new 0 0 191 320.7;" xml:space="preserve">
<polygon points="-0.3,33.4 32,1 191.7,161 191.7,161 191.7,161 32,321 -0.3,288.6 127,161 "/>
</svg>
